digraph "src/command/ls.c"
{
  edge [fontname="Helvetica",fontsize="10",labelfontname="Helvetica",labelfontsize="10"];
  node [fontname="Helvetica",fontsize="10",shape=record];
  Node0 [label="src/command/ls.c",height=0.2,width=0.4,color="black", fillcolor="grey75", style="filled", fontcolor="black"];
  Node0 -> Node1 [color="midnightblue",fontsize="10",style="solid"];
  Node1 [label="ls.h",height=0.2,width=0.4,color="black", fillcolor="white", style="filled",URL="$ls_8h_source.html"];
  Node0 -> Node2 [color="midnightblue",fontsize="10",style="solid"];
  Node2 [label="../utils/typedef.h",height=0.2,width=0.4,color="black", fillcolor="white", style="filled",URL="$typedef_8h_source.html"];
  Node2 -> Node3 [color="midnightblue",fontsize="10",style="solid"];
  Node3 [label="stdio.h",height=0.2,width=0.4,color="grey75", fillcolor="white", style="filled"];
  Node2 -> Node4 [color="midnightblue",fontsize="10",style="solid"];
  Node4 [label="stdlib.h",height=0.2,width=0.4,color="grey75", fillcolor="white", style="filled"];
  Node2 -> Node5 [color="midnightblue",fontsize="10",style="solid"];
  Node5 [label="unistd.h",height=0.2,width=0.4,color="grey75", fillcolor="white", style="filled"];
  Node0 -> Node6 [color="midnightblue",fontsize="10",style="solid"];
  Node6 [label="../utils/utils.h",height=0.2,width=0.4,color="black", fillcolor="white", style="filled",URL="$utils_8h_source.html"];
  Node0 -> Node7 [color="midnightblue",fontsize="10",style="solid"];
  Node7 [label="string.h",height=0.2,width=0.4,color="grey75", fillcolor="white", style="filled"];
  Node0 -> Node8 [color="midnightblue",fontsize="10",style="solid"];
  Node8 [label="errno.h",height=0.2,width=0.4,color="grey75", fillcolor="white", style="filled"];
  Node0 -> Node9 [color="midnightblue",fontsize="10",style="solid"];
  Node9 [label="getopt.h",height=0.2,width=0.4,color="grey75", fillcolor="white", style="filled"];
  Node0 -> Node10 [color="midnightblue",fontsize="10",style="solid"];
  Node10 [label="sys/stat.h",height=0.2,width=0.4,color="grey75", fillcolor="white", style="filled"];
  Node0 -> Node11 [color="midnightblue",fontsize="10",style="solid"];
  Node11 [label="dirent.h",height=0.2,width=0.4,color="grey75", fillcolor="white", style="filled"];
  Node0 -> Node12 [color="midnightblue",fontsize="10",style="solid"];
  Node12 [label="time.h",height=0.2,width=0.4,color="grey75", fillcolor="white", style="filled"];
  Node0 -> Node13 [color="midnightblue",fontsize="10",style="solid"];
  Node13 [label="pwd.h",height=0.2,width=0.4,color="grey75", fillcolor="white", style="filled"];
  Node0 -> Node14 [color="midnightblue",fontsize="10",style="solid"];
  Node14 [label="grp.h",height=0.2,width=0.4,color="grey75", fillcolor="white", style="filled"];
}
